Lab2/testbench.vcd
$date
	Thu Apr 20 20:37:03 2023
$end
$version
	Icarus Verilog
$end
$timescale
	1ps
$end
$scope module TestBench $end
$var reg 1 ! CLK $end
$var reg 1 " RST $end
$var integer 32 # count [31:0] $end
$var integer 32 $ end_count [31:0] $end
$var integer 32 % handle [31:0] $end
$scope module cpu $end
$var wire 1 ! clk_i $end
$var wire 1 " rst_i $end
$var wire 32 & src2 [31:0] $end
$var wire 32 ' rt [31:0] $end
$var wire 32 ( rs [31:0] $end
$var wire 32 ) pc4 [31:0] $end
$var wire 32 * pc3 [31:0] $end
$var wire 32 + pc2 [31:0] $end
$var wire 32 , pc1 [31:0] $end
$var wire 32 - instr [31:0] $end
$var wire 32 . extended_and_shifted [31:0] $end
$var wire 32 / extended [31:0] $end
$var wire 1 0 branch $end
$var wire 5 1 Write_reg [4:0] $end
$var wire 1 2 RegWrite $end
$var wire 1 3 RegDst $end
$var wire 1 4 ALUsrc $end
$var wire 3 5 ALUop [2:0] $end
$var wire 4 6 ALUctrl [3:0] $end
$var wire 32 7 ALU_result [31:0] $end
$var wire 1 8 ALU_Zero $end
$scope module AC $end
$var wire 6 9 funct_i [5:0] $end
$var wire 3 : ALUOp_i [2:0] $end
$var reg 4 ; ALUCtrl_o [3:0] $end
$upscope $end
$scope module ALU $end
$var wire 4 < ctrl_i [3:0] $end
$var wire 1 8 zero_o $end
$var wire 32 = src2_i [31:0] $end
$var wire 32 > src1_i [31:0] $end
$var reg 32 ? result_o [31:0] $end
$upscope $end
$scope module Adder1 $end
$var wire 32 @ src2_i [31:0] $end
$var wire 32 A sum_o [31:0] $end
$var wire 32 B src1_i [31:0] $end
$upscope $end
$scope module Adder2 $end
$var wire 32 C src1_i [31:0] $end
$var wire 32 D sum_o [31:0] $end
$var wire 32 E src2_i [31:0] $end
$upscope $end
$scope module Decoder $end
$var wire 6 F instr_op_i [5:0] $end
$var reg 1 4 ALUSrc_o $end
$var reg 3 G ALU_op_o [2:0] $end
$var reg 1 0 Branch_o $end
$var reg 1 3 RegDst_o $end
$var reg 1 2 RegWrite_o $end
$upscope $end
$scope module IM $end
$var wire 32 H pc_addr_i [31:0] $end
$var reg 32 I instr_o [31:0] $end
$var integer 32 J i [31:0] $end
$upscope $end
$scope module Mux_ALUSrc $end
$var wire 1 4 select_i $end
$var wire 32 K data1_i [31:0] $end
$var wire 32 L data0_i [31:0] $end
$var reg 32 M data_o [31:0] $end
$upscope $end
$scope module Mux_PC_Source $end
$var wire 32 N data0_i [31:0] $end
$var wire 32 O data1_i [31:0] $end
$var wire 1 P select_i $end
$var reg 32 Q data_o [31:0] $end
$upscope $end
$scope module Mux_Write_Reg $end
$var wire 5 R data0_i [4:0] $end
$var wire 5 S data1_i [4:0] $end
$var wire 1 3 select_i $end
$var reg 5 T data_o [4:0] $end
$upscope $end
$scope module PC $end
$var wire 1 ! clk_i $end
$var wire 32 U pc_in_i [31:0] $end
$var wire 1 " rst_i $end
$var reg 32 V pc_out_o [31:0] $end
$upscope $end
$scope module RF $end
$var wire 5 W RDaddr_i [4:0] $end
$var wire 32 X RDdata_i [31:0] $end
$var wire 5 Y RSaddr_i [4:0] $end
$var wire 32 Z RSdata_o [31:0] $end
$var wire 5 [ RTaddr_i [4:0] $end
$var wire 32 \ RTdata_o [31:0] $end
$var wire 1 2 RegWrite_i $end
$var wire 1 ! clk_i $end
$var wire 1 " rst_i $end
$upscope $end
$scope module SE $end
$var wire 16 ] data_i [15:0] $end
$var reg 32 ^ data_o [31:0] $end
$var integer 32 _ i [31:0] $end
$upscope $end
$scope module Shifter $end
$var wire 32 ` data_i [31:0] $end
$var reg 32 a data_o [31:0] $end
$var integer 32 b i [31:0] $end
$var integer 32 c j [31:0] $end
$upscope $end
$upscope $end
$upscope $end
$enddefinitions $end
#0
$dumpvars
bx c
bx b
bx a
bx `
bx _
bx ^
bx ]
bx \
bx [
bx Z
bx Y
bx X
bx W
bx V
bx U
bx T
bx S
bx R
bx Q
xP
bx O
bx N
bx M
bx L
bx K
b100000 J
bx I
bx H
bx G
bx F
bx E
bx D
bx C
bx B
bx A
b100 @
bx ?
bx >
bx =
bx <
bx ;
bx :
bx 9
x8
bx 7
bx 6
bx 5
x4
x3
x2
bx 1
x0
bx /
bx .
bx -
bx ,
bx +
bx *
bx )
bx (
bx '
bx &
b10 %
b11001 $
b0 #
0"
0!
$end
#5000
b100 )
b100 Q
b100 U
0P
b10 &
b10 =
b10 M
b1100 *
b1100 D
b1100 O
b10 6
b10 ;
b10 <
00
03
14
b10 5
b10 :
b10 G
12
08
b10 7
b10 ?
b10 X
b110 1
b110 T
b110 W
b1000 .
b1000 E
b1000 a
b100000 b
b11110 c
b10 /
b10 K
b10 ^
b10 `
b100000 _
b10 ]
b10 9
b1000 F
b0 '
b0 L
b0 \
b110 [
b0 (
b0 >
b0 Z
b0 Y
b0 S
b110 R
b100000000001100000000000000010 -
b100000000001100000000000000010 I
b100 +
b100 A
b100 C
b100 N
b0 ,
b0 B
b0 H
b0 V
b1 #
1!
#10000
b10 '
b10 L
b10 \
0!
1"
#15000
b1110 7
b1110 ?
b1110 X
b1110 &
b1110 =
b1110 M
b111000 .
b111000 E
b111000 a
b111 1
b111 T
b111 W
b1000 )
b1000 Q
b1000 U
b100000 b
b11110 c
b1110 /
b1110 K
b1110 ^
b1110 `
b100000 _
b1110 ]
b1110 9
b0 '
b0 L
b0 \
b111 [
b111 R
b100000000001110000000000001110 -
b100000000001110000000000001110 I
b1000000 *
b1000000 D
b1000000 O
b1000 +
b1000 A
b1000 C
b1000 N
b100 ,
b100 B
b100 H
b100 V
b10 #
1!
#20000
0!
#25000
b1000 1
b1000 T
b1000 W
b0 6
b0 ;
b0 <
b1110 &
b1110 =
b1110 M
b10000000010010000 .
b10000000010010000 E
b10000000010010000 a
13
04
b0 5
b0 :
b0 G
b10 7
b10 ?
b10 X
b1100 )
b1100 Q
b1100 U
b100000 b
b11110 c
b100000000100100 /
b100000000100100 K
b100000000100100 ^
b100000000100100 `
b100000 _
b100000000100100 ]
b100100 9
b0 F
b10 (
b10 >
b10 Z
b110 Y
b1000 S
b110001110100000000100100 -
b110001110100000000100100 I
b10000000010011100 *
b10000000010011100 D
b10000000010011100 O
b1100 +
b1100 A
b1100 C
b1100 N
b1000 ,
b1000 B
b1000 H
b1000 V
b1110 '
b1110 L
b1110 \
b11 #
1!
#30000
0!
#35000
b1110 7
b1110 ?
b1110 X
b10010000010010100 .
b10010000010010100 E
b10010000010010100 a
b1 6
b1 ;
b1 <
b1001 1
b1001 T
b1001 W
b10000 )
b10000 Q
b10000 U
b100000 b
b11110 c
b100100000100101 /
b100100000100101 K
b100100000100101 ^
b100100000100101 `
b100000 _
b100100000100101 ]
b100101 9
b1001 S
b110001110100100000100101 -
b110001110100100000100101 I
b10010000010100100 *
b10010000010100100 D
b10010000010100100 O
b10000 +
b10000 A
b10000 C
b10000 N
b1100 ,
b1100 B
b1100 H
b1100 V
b100 #
1!
#40000
0!
#45000
b11111111111111111111111111111100 .
b11111111111111111111111111111100 E
b11111111111111111111111111111100 a
b1 7
b1 ?
b1 X
03
14
b10 5
b10 :
b10 G
b11111111111111111111111111111111 &
b11111111111111111111111111111111 =
b11111111111111111111111111111111 M
b110 1
b110 T
b110 W
b10100 )
b10100 Q
b10100 U
b100000 b
b11110 c
b11111111111111111111111111111111 /
b11111111111111111111111111111111 K
b11111111111111111111111111111111 ^
b11111111111111111111111111111111 `
b100000 _
b10 6
b10 ;
b10 <
b1111111111111111 ]
b111111 9
b1000 F
b10 '
b10 L
b10 \
b110 [
b11111 S
b110 R
b100000110001101111111111111111 -
b100000110001101111111111111111 I
b10000 *
b10000 D
b10000 O
b10100 +
b10100 A
b10100 C
b10100 N
b10000 ,
b10000 B
b10000 H
b10000 V
b101 #
1!
#50000
0!
#55000
b111 6
b111 ;
b111 <
b1 &
b1 =
b1 M
b100 .
b100 E
b100 a
b11 5
b11 :
b11 G
b1 1
b1 T
b1 W
b11000 )
b11000 Q
b11000 U
18
b0 7
b0 ?
b0 X
b100000 b
b11110 c
b1 /
b1 K
b1 ^
b1 `
b100000 _
b1 ]
b1 9
b1010 F
b1 [
b0 S
b1 R
b101000110000010000000000000001 -
b101000110000010000000000000001 I
b11100 *
b11100 D
b11100 O
b11000 +
b11000 A
b11000 C
b11000 N
b10100 ,
b10100 B
b10100 H
b10100 V
b1 (
b1 >
b1 Z
b0 '
b0 L
b0 \
b110 #
1!
#60000
0!
#65000
1P
b110 6
b110 ;
b110 <
b0 &
b0 =
b0 M
b11111111111111111111111111101100 .
b11111111111111111111111111101100 E
b11111111111111111111111111101100 a
10
04
b1 5
b1 :
b1 G
02
18
b0 7
b0 ?
b0 X
b0 1
b0 T
b0 W
b1000 )
b1000 Q
b1000 U
b100000 b
b11110 c
b11111111111111111111111111111011 /
b11111111111111111111111111111011 K
b11111111111111111111111111111011 ^
b11111111111111111111111111111011 `
b100000 _
b1111111111111011 ]
b111011 9
b100 F
b0 [
b0 (
b0 >
b0 Z
b1 Y
b11111 S
b0 R
b10000001000001111111111111011 -
b10000001000001111111111111011 I
b1000 *
b1000 D
b1000 O
b11100 +
b11100 A
b11100 C
b11100 N
b11000 ,
b11000 B
b11000 H
b11000 V
b111 #
1!
#70000
0!
#75000
b0 6
b0 ;
b0 <
0P
b10000000010010000 .
b10000000010010000 E
b10000000010010000 a
00
13
b0 5
b0 :
b0 G
12
b1110 &
b1110 =
b1110 M
18
b0 7
b0 ?
b0 X
b1000 1
b1000 T
b1000 W
b1100 )
b1100 Q
b1100 U
b100000 b
b11110 c
b100000000100100 /
b100000000100100 K
b100000000100100 ^
b100000000100100 `
b100000 _
b100000000100100 ]
b100100 9
b0 F
b1110 '
b1110 L
b1110 \
b111 [
b1 (
b1 >
b1 Z
b110 Y
b1000 S
b111 R
b110001110100000000100100 -
b110001110100000000100100 I
b10000000010011100 *
b10000000010011100 D
b10000000010011100 O
b1100 +
b1100 A
b1100 C
b1100 N
b1000 ,
b1000 B
b1000 H
b1000 V
b1000 #
1!
#80000
0!
#85000
08
b1111 7
b1111 ?
b1111 X
b10010000010010100 .
b10010000010010100 E
b10010000010010100 a
b1 6
b1 ;
b1 <
b1001 1
b1001 T
b1001 W
b10000 )
b10000 Q
b10000 U
b100000 b
b11110 c
b100100000100101 /
b100100000100101 K
b100100000100101 ^
b100100000100101 `
b100000 _
b100100000100101 ]
b100101 9
b1001 S
b110001110100100000100101 -
b110001110100100000100101 I
b10010000010100100 *
b10010000010100100 D
b10010000010100100 O
b10000 +
b10000 A
b10000 C
b10000 N
b1100 ,
b1100 B
b1100 H
b1100 V
b1001 #
1!
#90000
0!
#95000
b11111111111111111111111111111100 .
b11111111111111111111111111111100 E
b11111111111111111111111111111100 a
18
b0 7
b0 ?
b0 X
03
14
b10 5
b10 :
b10 G
b11111111111111111111111111111111 &
b11111111111111111111111111111111 =
b11111111111111111111111111111111 M
b110 1
b110 T
b110 W
b10100 )
b10100 Q
b10100 U
b100000 b
b11110 c
b11111111111111111111111111111111 /
b11111111111111111111111111111111 K
b11111111111111111111111111111111 ^
b11111111111111111111111111111111 `
b100000 _
b10 6
b10 ;
b10 <
b1111111111111111 ]
b111111 9
b1000 F
b1 '
b1 L
b1 \
b110 [
b11111 S
b110 R
b100000110001101111111111111111 -
b100000110001101111111111111111 I
b10000 *
b10000 D
b10000 O
b10100 +
b10100 A
b10100 C
b10100 N
b10000 ,
b10000 B
b10000 H
b10000 V
b1010 #
1!
#100000
0!
#105000
b111 6
b111 ;
b111 <
b1 &
b1 =
b1 M
b100 .
b100 E
b100 a
b11 5
b11 :
b11 G
b1 1
b1 T
b1 W
b11000 )
b11000 Q
b11000 U
08
b1 7
b1 ?
b1 X
b100000 b
b11110 c
b1 /
b1 K
b1 ^
b1 `
b100000 _
b1 ]
b1 9
b1010 F
b1 [
b0 S
b1 R
b101000110000010000000000000001 -
b101000110000010000000000000001 I
b11100 *
b11100 D
b11100 O
b11000 +
b11000 A
b11000 C
b11000 N
b10100 ,
b10100 B
b10100 H
b10100 V
b0 (
b0 >
b0 Z
b0 '
b0 L
b0 \
b1011 #
1!
#110000
0!
#115000
b110 6
b110 ;
b110 <
0P
b0 &
b0 =
b0 M
b11111111111111111111111111101100 .
b11111111111111111111111111101100 E
b11111111111111111111111111101100 a
10
04
b1 5
b1 :
b1 G
02
08
b1 7
b1 ?
b1 X
b0 1
b0 T
b0 W
b11100 )
b11100 Q
b11100 U
b100000 b
b11110 c
b11111111111111111111111111111011 /
b11111111111111111111111111111011 K
b11111111111111111111111111111011 ^
b11111111111111111111111111111011 `
b100000 _
b1111111111111011 ]
b111011 9
b100 F
b0 [
b1 (
b1 >
b1 Z
b1 Y
b11111 S
b0 R
b10000001000001111111111111011 -
b10000001000001111111111111011 I
b1000 *
b1000 D
b1000 O
b11100 +
b11100 A
b11100 C
b11100 N
b11000 ,
b11000 B
b11000 H
b11000 V
b0 '
b0 L
b0 \
b1100 #
1!
#120000
0!
#125000
b0 6
b0 ;
b0 <
bx00 .
bx00 E
bx00 a
00
b0 5
b0 :
b0 G
bx &
bx =
bx M
x8
bx 7
bx ?
bx X
bx 1
bx T
bx W
b100000 )
b100000 Q
b100000 U
b100000 b
b11110 c
bx /
bx K
bx ^
bx `
b100000 _
bx ]
bx 9
bx F
bx '
bx L
bx \
bx [
bx (
bx >
bx Z
bx Y
bx S
bx R
bx -
bx I
bx *
bx D
bx O
b100000 +
b100000 A
b100000 C
b100000 N
b11100 ,
b11100 B
b11100 H
b11100 V
b1101 #
1!
#130000
0!
#135000
b100100 )
b100100 Q
b100100 U
b100100 +
b100100 A
b100100 C
b100100 N
b100000 ,
b100000 B
b100000 H
b100000 V
b1110 #
1!
#140000
0!
#145000
b101000 )
b101000 Q
b101000 U
b101000 +
b101000 A
b101000 C
b101000 N
b100100 ,
b100100 B
b100100 H
b100100 V
b1111 #
1!
#150000
0!
#155000
b101100 )
b101100 Q
b101100 U
b101100 +
b101100 A
b101100 C
b101100 N
b101000 ,
b101000 B
b101000 H
b101000 V
b10000 #
1!
#160000
0!
#165000
b110000 )
b110000 Q
b110000 U
b110000 +
b110000 A
b110000 C
b110000 N
b101100 ,
b101100 B
b101100 H
b101100 V
b10001 #
1!
#170000
0!
#175000
b110100 )
b110100 Q
b110100 U
b110100 +
b110100 A
b110100 C
b110100 N
b110000 ,
b110000 B
b110000 H
b110000 V
b10010 #
1!
#180000
0!
#185000
b111000 )
b111000 Q
b111000 U
b111000 +
b111000 A
b111000 C
b111000 N
b110100 ,
b110100 B
b110100 H
b110100 V
b10011 #
1!
#190000
0!
#195000
b111100 )
b111100 Q
b111100 U
b111100 +
b111100 A
b111100 C
b111100 N
b111000 ,
b111000 B
b111000 H
b111000 V
b10100 #
1!
#200000
0!
#205000
b1000000 )
b1000000 Q
b1000000 U
b1000000 +
b1000000 A
b1000000 C
b1000000 N
b111100 ,
b111100 B
b111100 H
b111100 V
b10101 #
1!
#210000
0!
#215000
b1000100 )
b1000100 Q
b1000100 U
b1000100 +
b1000100 A
b1000100 C
b1000100 N
b1000000 ,
b1000000 B
b1000000 H
b1000000 V
b10110 #
1!
#220000
0!
#225000
b1001000 )
b1001000 Q
b1001000 U
b1001000 +
b1001000 A
b1001000 C
b1001000 N
b1000100 ,
b1000100 B
b1000100 H
b1000100 V
b10111 #
1!
#230000
0!
#235000
b1001100 )
b1001100 Q
b1001100 U
b1001100 +
b1001100 A
b1001100 C
b1001100 N
b1001000 ,
b1001000 B
b1001000 H
b1001000 V
b11000 #
1!
#240000
0!
#245000
b1010000 )
b1010000 Q
b1010000 U
b1010000 +
b1010000 A
b1010000 C
b1010000 N
b1001100 ,
b1001100 B
b1001100 H
b1001100 V
b11001 #
1!
#250000
0!
#255000
b1010100 )
b1010100 Q
b1010100 U
b1010100 +
b1010100 A
b1010100 C
b1010100 N
b1010000 ,
b1010000 B
b1010000 H
b1010000 V
b11010 #
1!
